{
  "name": "api-weather",
  "version": "0.0.1",
  "description": "",
  "author": "",
  "private": true,
  "license": "UNLICENSED",
  "scripts": {
    "prebuild": "rimraf dist",
    "build": "nest build",
    "format": "prettier --write \"src/**/*.ts\" \"test/**/*.ts\"",
    "start": "nest start",
    "start:dev": "nest start --watch",
    "start:debug": "nest start --debug --watch",
    "start:prod": "node dist/main",
    "lint": "eslint \"{src,apps,libs,test}/**/*.ts\" --fix",
    "test": "jest",
    "test:watch": "jest --watch",
    "test:cov": "jest --coverage",
    "test:debug": "node --inspect-brk -r tsconfig-paths/register -r ts-node/register node_modules/.bin/jest --runInBand",
    "test:e2e": "jest --config ./test/jest-e2e.json"
  },
  "dependencies": {
    "@nestjs/common": "^7.6.15",
    "@nestjs/config": "^2.2.0",
    "@nestjs/core": "^7.6.15",
    "@nestjs/platform-express": "^7.6.15",
    "@nestjs/swagger": "^4.8.2",
    "reflect-metadata": "^0.1.13",
    "rimraf": "^3.0.2",
    "rxjs": "^6.6.6",
    "swagger-ui-express": "^4.1.6"
  },
  "devDependencies": {
    "@nestjs/cli": "^7.6.0",
    "@nestjs/schematics": "^7.3.0",
    "@nestjs/testing": "^7.6.15",
    "@types/express": "^4.17.11",
    "@types/jest": "^26.0.22",
    "@types/node": "^14.14.36",
    "@types/supertest": "^2.0.10",
    "@typescript-eslint/eslint-plugin": "^4.19.0",
    "@typescript-eslint/parser": "^4.19.0",
    "eslint": "^7.22.0",
    "eslint-config-prettier": "^8.1.0",
    "eslint-plugin-prettier": "^3.3.1",
    "jest": "^26.6.3",
    "prettier": "^2.2.1",
    "supertest": "^6.1.3",
    "ts-jest": "^26.5.4",
    "ts-loader": "^8.0.18",
    "ts-node": "^9.1.1",
    "tsconfig-paths": "^3.9.0",
    "typescript": "^4.2.3"
  },
  "jest": {
    "moduleFileExtensions": [
      "js",
      "json",
      "ts"
    ],
    "rootDir": "src",
    "testRegex": ".*\\.spec\\.ts$",
    "transform": {
      "^.+\\.(t|j)s$": "ts-jest"
    },
    "collectCoverageFrom": [
      "**/*.(t|j)s"
    ],
    "coverageDirectory": "../coverage",
    "testEnvironment": "node"
  }
}
